\beamer@endinputifotherversion {3.33pt}
\select@language {russian}
\beamer@sectionintoc {1}{\IeC {\CYRS }\IeC {\cyre }\IeC {\cyrk }\IeC {\cyrc }\IeC {\cyri }\IeC {\cyrya } 1}{3}{0}{1}
\beamer@subsectionintoc {1}{1}{\IeC {\CYRP }\IeC {\cyro }\IeC {\cyrd }\IeC {\cyrr }\IeC {\cyra }\IeC {\cyrz }\IeC {\cyrd }\IeC {\cyre }\IeC {\cyrl } 1}{4}{0}{1}
