\BOOKMARK [0][-]{toc.0}{\376\377\004\041\004\076\004\064\004\065\004\100\004\066\004\060\004\075\004\070\004\065}{}% 1
\BOOKMARK [0][-]{chapter.1}{\376\377\004\042\004\065\004\101\004\102\004\070\004\100\004\076\004\062\004\060\004\075\004\070\004\065\000\040\004\076\004\061\004\111\004\070\004\105\000\040\004\067\004\075\004\060\004\075\004\070\004\071\000\040\004\076\000\040\000L\000a\000T\000e\000X}{}% 2
\BOOKMARK [1][-]{section.1.1}{\376\377\004\036\004\061\004\117\004\067\004\060\004\102\004\065\004\073\004\114\004\075\004\076\004\065\000\040\004\067\004\060\004\064\004\060\004\075\004\070\004\065}{chapter.1}% 3
\BOOKMARK [1][-]{section.1.2}{\376\377\004\027\004\060\004\064\004\060\004\075\004\070\004\065\000\040\004\077\004\076\000\040\004\066\004\065\004\073\004\060\004\075\004\070\004\116}{chapter.1}% 4
\BOOKMARK [0][-]{chapter.2}{\376\377\004\042\004\065\004\101\004\102\004\070\004\100\004\076\004\062\004\060\004\075\004\070\004\065\000\040\004\067\004\075\004\060\004\075\004\070\004\071\000\040\000A\000M\000S\000-\000L\000a\000T\000e\000X}{}% 5
\BOOKMARK [1][-]{section.2.1}{\376\377\004\036\004\061\004\117\004\067\004\060\004\102\004\065\004\073\004\114\004\075\004\076}{chapter.2}% 6
\BOOKMARK [2][-]{subsection.2.1.1}{\376\377\004\037\004\100\004\070\004\074\004\065\004\100\000\040\004\076\004\072\004\100\004\103\004\066\004\065\004\075\004\070\004\117\000\040\000e\000q\000u\000a\000t\000i\000o\000n}{section.2.1}% 7
\BOOKMARK [2][-]{subsection.2.1.2}{\376\377\004\037\004\100\004\070\004\074\004\065\004\100\000\040\000e\000q\000n\000a\000r\000r\000a\000y}{section.2.1}% 8
\BOOKMARK [2][-]{subsection.2.1.3}{\376\377\004\041\004\101\004\113\004\073\004\072\004\060\000\040\004\075\004\060\000\040\004\104\004\076\004\100\004\074\004\103\004\073\004\103}{section.2.1}% 9
\BOOKMARK [2][-]{subsection.2.1.4}{\376\377\004\037\004\100\004\070\004\074\004\065\004\100\000\040\000a\000l\000i\000g\000n}{section.2.1}% 10
\BOOKMARK [2][-]{subsection.2.1.5}{\376\377\004\027\004\060\004\064\004\060\004\075\004\070\004\065\000\040\004\075\004\060\000\040\004\062\004\113\004\061\004\076\004\100}{section.2.1}% 11
\BOOKMARK [1][-]{section.2.2}{\376\377\004\026\004\065\004\073\004\060\004\102\004\065\004\073\004\114\004\075\004\076}{chapter.2}% 12
\BOOKMARK [0][-]{chapter.3}{\376\377\004\042\004\065\004\101\004\102\004\070\004\100\004\076\004\062\004\060\004\075\004\070\004\065\000\040\004\067\004\075\004\060\004\075\004\070\004\071\000\040\004\077\004\076\000\040\004\076\004\104\004\076\004\100\004\074\004\073\004\065\004\075\004\070\004\116\000\040\004\070\004\073\004\073\004\116\004\101\004\102\004\100\004\060\004\106\004\070\004\071\000\040\004\070\000\040\004\102\004\060\004\061\004\073\004\070\004\106}{}% 13
\BOOKMARK [1][-]{section.3.1}{\376\377\004\022\004\101\004\102\004\060\004\062\004\072\004\060\000\040\004\070\004\073\004\073\004\116\004\101\004\102\004\100\004\060\004\106\004\070\004\071}{chapter.3}% 14
\BOOKMARK [2][-]{subsection.3.1.1}{\376\377\004\022\004\101\004\102\004\060\004\062\004\072\004\060\000\040\0002\000-\004\105\000\040\004\070\004\073\004\073\004\116\004\101\004\102\004\100\004\060\004\106\004\070\004\071\000\040\004\100\004\117\004\064\004\076\004\074\000,\000\040\004\101\000\040\004\076\004\064\004\075\004\076\004\071\000\040\004\077\004\076\004\064\004\077\004\070\004\101\004\114\004\116}{section.3.1}% 15
\BOOKMARK [2][-]{subsection.3.1.2}{\376\377\004\036\004\061\004\102\004\065\004\072\004\060\004\075\004\070\004\065\000\040\004\100\004\070\004\101\004\103\004\075\004\072\004\060\000\040\004\102\004\065\004\072\004\101\004\102\004\076\004\074}{section.3.1}% 16
\BOOKMARK [1][-]{section.3.2}{\376\377\004\023\004\065\004\075\004\065\004\100\004\060\004\106\004\070\004\117\000\040\004\100\004\070\004\101\004\103\004\075\004\072\004\076\004\062\000\040\004\070\004\067\000\040\004\072\004\076\004\064\004\060\000\040\000\050\000t\000i\000k\000z\000/\000p\000g\000f\000p\000l\000o\000t\000s\000\051}{chapter.3}% 17
\BOOKMARK [2][-]{subsection.3.2.1}{\376\377\004\027\004\060\004\063\004\100\004\103\004\067\004\072\004\060\000\040\004\064\004\060\004\075\004\075\004\113\004\105\000\040\004\070\004\067\000\040\000c\000s\000v}{section.3.2}% 18
\BOOKMARK [2][-]{subsection.3.2.2}{\376\377\004\023\004\100\004\060\004\104\004\070\004\072\000\040\004\104\004\103\004\075\004\072\004\106\004\070\004\070\000\040\0002\000D}{section.3.2}% 19
\BOOKMARK [2][-]{subsection.3.2.3}{\376\377\004\023\004\100\004\060\004\104\004\070\004\072\000\040\004\104\004\103\004\075\004\072\004\106\004\070\004\070\000\040\0003\000D}{section.3.2}% 20
\BOOKMARK [1][-]{section.3.3}{\376\377\004\042\004\060\004\061\004\073\004\070\004\106\004\113}{chapter.3}% 21
\BOOKMARK [2][-]{subsection.3.3.1}{\376\377\004\027\004\060\004\063\004\100\004\103\004\067\004\072\004\060\000\040\004\070\004\067\000\040\000c\000s\000v}{section.3.3}% 22
\BOOKMARK [2][-]{subsection.3.3.2}{\376\377\004\034\004\075\004\076\004\063\004\076\004\101\004\102\004\100\004\060\004\075\004\070\004\107\004\075\004\060\004\117\000\040\004\102\004\060\004\061\004\073\004\070\004\106\004\060}{section.3.3}% 23
\BOOKMARK [0][-]{chapter.4}{\376\377\004\042\004\065\004\101\004\102\004\070\004\100\004\076\004\062\004\060\004\075\004\070\004\065\000\040\004\067\004\075\004\060\004\075\004\070\004\071\000\040\004\077\004\076\000\040\004\076\004\104\004\076\004\100\004\074\004\073\004\065\004\075\004\070\004\116\000\040\004\077\004\100\004\076\004\063\004\100\004\060\004\074\004\074\004\075\004\076\004\071\000\040\004\064\004\076\004\072\004\103\004\074\004\065\004\075\004\102\004\060\004\106\004\070\004\070}{}% 24
\BOOKMARK [1][-]{section.4.1}{\376\377\004\036\004\104\004\076\004\100\004\074\004\073\004\065\004\075\004\070\004\065\000\040\004\073\004\070\004\101\004\102\004\070\004\075\004\063\004\076\004\062\000\040\004\072\004\076\004\064\004\060}{chapter.4}% 25
\BOOKMARK [2][-]{subsection.4.1.1}{\376\377\004\037\004\100\004\070\004\074\004\065\004\100\000\040\004\072\004\076\004\064\004\060\000\040\004\101\000\040\004\077\004\076\004\074\004\076\004\111\004\114\004\116\000\040\000l\000s\000t\000l\000i\000s\000t\000i\000n\000g}{section.4.1}% 26
\BOOKMARK [2][-]{subsection.4.1.2}{\376\377\004\022\004\101\004\102\004\060\004\062\004\072\004\060\000\040\004\072\004\076\004\064\004\060\000\040\004\070\004\067\000\040\004\104\004\060\004\071\004\073\004\060\000\040\004\101\000\040\004\077\004\076\004\074\004\076\004\111\004\114\004\116\000\040\000l\000s\000t\000i\000n\000p\000u\000t\000l\000i\000s\000t\000i\000n\000g}{section.4.1}% 27
\BOOKMARK [1][-]{section.4.2}{\376\377\004\020\004\073\004\063\004\076\004\100\004\070\004\102\004\074\004\113\000\040\004\070\000\040\004\077\004\101\004\065\004\062\004\064\004\076\004\072\004\076\004\064}{chapter.4}% 28
\BOOKMARK [2][-]{subsection.4.2.1}{\376\377\004\020\004\073\004\063\004\076\004\100\004\070\004\102\004\074}{section.4.2}% 29
\BOOKMARK [0][-]{chapter.5}{\376\377\004\046\004\070\004\102\004\070\004\100\004\076\004\062\004\060\004\075\004\070\004\065\000\040\004\070\000\040\004\061\004\070\004\061\004\073\004\070\004\076\004\063\004\100\004\060\004\104\004\070\004\117}{}% 30
\BOOKMARK [0][-]{chapter.5}{\376\377\004\033\004\070\004\102\004\065\004\100\004\060\004\102\004\103\004\100\004\060}{}% 31
\BOOKMARK [0][-]{section*.2}{\376\377\004\041\004\077\004\070\004\101\004\076\004\072\000\040\004\100\004\070\004\101\004\103\004\075\004\072\004\076\004\062}{}% 32
\BOOKMARK [0][-]{section*.3}{\376\377\004\041\004\077\004\070\004\101\004\076\004\072\000\040\004\102\004\060\004\061\004\073\004\070\004\106}{}% 33
\BOOKMARK [0][-]{section*.3}{\376\377\004\041\004\077\004\070\004\101\004\076\004\072\000\040\004\073\004\070\004\101\004\102\004\070\004\075\004\063\004\076\004\062\000\040\004\077\004\100\004\076\004\063\004\100\004\060\004\074\004\074}{}% 34
\BOOKMARK [0][-]{section*.3}{\376\377\004\041\004\077\004\070\004\101\004\076\004\072\000\040\004\060\004\073\004\063\004\076\004\100\004\070\004\102\004\074\004\076\004\062}{}% 35
\BOOKMARK [0][-]{appendix.A}{\376\377\004\030\004\073\004\073\004\116\004\101\004\102\004\100\004\060\004\106\004\070\004\070\000\040\004\070\000\040\004\102\004\060\004\061\004\073\004\070\004\106\004\113}{}% 36
\BOOKMARK [1][-]{section.A.1}{\376\377\004\023\004\100\004\060\004\104\004\070\004\072\000\040\004\104\004\103\004\075\004\072\004\106\004\070\004\070\000\040\0003\000D}{appendix.A}% 37
\BOOKMARK [1][-]{section.A.2}{\376\377\004\034\004\075\004\076\004\063\004\076\004\101\004\102\004\100\004\060\004\075\004\070\004\107\004\075\004\060\004\117\000\040\004\102\004\060\004\061\004\073\004\070\004\106\004\060}{appendix.A}% 38
\BOOKMARK [0][-]{appendix.B}{\376\377\004\033\004\070\004\101\004\102\004\070\004\075\004\063\000\040\004\077\004\100\004\076\004\063\004\100\004\060\004\074\004\074\004\075\004\076\004\063\004\076\000\040\004\072\004\076\004\064\004\060}{}% 39
