\select@language {russian}
\contentsline {chapter}{\numberline {1}\IeC {\CYRT }\IeC {\cyre }\IeC {\cyrs }\IeC {\cyrt }\IeC {\cyri }\IeC {\cyrr }\IeC {\cyro }\IeC {\cyrv }\IeC {\cyra }\IeC {\cyrn }\IeC {\cyri }\IeC {\cyre } \IeC {\cyro }\IeC {\cyrb }\IeC {\cyrshch }\IeC {\cyri }\IeC {\cyrh } \IeC {\cyrz }\IeC {\cyrn }\IeC {\cyra }\IeC {\cyrn }\IeC {\cyri }\IeC {\cyrishrt } \IeC {\cyro } \LaTeX }{5}{chapter.1}
\contentsline {section}{\numberline {1.1}\IeC {\CYRO }\IeC {\cyrb }\IeC {\cyrya }\IeC {\cyrz }\IeC {\cyra }\IeC {\cyrt }\IeC {\cyre }\IeC {\cyrl }\IeC {\cyrsftsn }\IeC {\cyrn }\IeC {\cyro }\IeC {\cyre } \IeC {\cyrz }\IeC {\cyra }\IeC {\cyrd }\IeC {\cyra }\IeC {\cyrn }\IeC {\cyri }\IeC {\cyre }}{5}{section.1.1}
\contentsline {section}{\numberline {1.2}\IeC {\CYRZ }\IeC {\cyra }\IeC {\cyrd }\IeC {\cyra }\IeC {\cyrn }\IeC {\cyri }\IeC {\cyre } \IeC {\cyrp }\IeC {\cyro } \IeC {\cyrzh }\IeC {\cyre }\IeC {\cyrl }\IeC {\cyra }\IeC {\cyrn }\IeC {\cyri }\IeC {\cyryu }}{6}{section.1.2}
\contentsline {chapter}{\numberline {2}\IeC {\CYRT }\IeC {\cyre }\IeC {\cyrs }\IeC {\cyrt }\IeC {\cyri }\IeC {\cyrr }\IeC {\cyro }\IeC {\cyrv }\IeC {\cyra }\IeC {\cyrn }\IeC {\cyri }\IeC {\cyre } \IeC {\cyrz }\IeC {\cyrn }\IeC {\cyra }\IeC {\cyrn }\IeC {\cyri }\IeC {\cyrishrt } AMS-LaTeX}{7}{chapter.2}
\contentsline {section}{\numberline {2.1}\IeC {\CYRO }\IeC {\cyrb }\IeC {\cyrya }\IeC {\cyrz }\IeC {\cyra }\IeC {\cyrt }\IeC {\cyre }\IeC {\cyrl }\IeC {\cyrsftsn }\IeC {\cyrn }\IeC {\cyro }}{7}{section.2.1}
\contentsline {subsection}{\numberline {2.1.1}\IeC {\CYRP }\IeC {\cyrr }\IeC {\cyri }\IeC {\cyrm }\IeC {\cyre }\IeC {\cyrr } \IeC {\cyro }\IeC {\cyrk }\IeC {\cyrr }\IeC {\cyru }\IeC {\cyrzh }\IeC {\cyre }\IeC {\cyrn }\IeC {\cyri }\IeC {\cyrya } \emph {equation}}{7}{subsection.2.1.1}
\contentsline {subsection}{\numberline {2.1.2}\IeC {\CYRP }\IeC {\cyrr }\IeC {\cyri }\IeC {\cyrm }\IeC {\cyre }\IeC {\cyrr } \emph {eqnarray}}{7}{subsection.2.1.2}
\contentsline {subsection}{\numberline {2.1.3}\IeC {\CYRS }\IeC {\cyrs }\IeC {\cyrery }\IeC {\cyrl }\IeC {\cyrk }\IeC {\cyra } \IeC {\cyrn }\IeC {\cyra } \IeC {\cyrf }\IeC {\cyro }\IeC {\cyrr }\IeC {\cyrm }\IeC {\cyru }\IeC {\cyrl }\IeC {\cyru }}{7}{subsection.2.1.3}
\contentsline {subsection}{\numberline {2.1.4}\IeC {\CYRP }\IeC {\cyrr }\IeC {\cyri }\IeC {\cyrm }\IeC {\cyre }\IeC {\cyrr } \emph {align}}{8}{subsection.2.1.4}
\contentsline {subsection}{\numberline {2.1.5}\IeC {\CYRZ }\IeC {\cyra }\IeC {\cyrd }\IeC {\cyra }\IeC {\cyrn }\IeC {\cyri }\IeC {\cyre } \IeC {\cyrn }\IeC {\cyra } \IeC {\cyrv }\IeC {\cyrery }\IeC {\cyrb }\IeC {\cyro }\IeC {\cyrr }}{8}{subsection.2.1.5}
\contentsline {subsubsection}{\IeC {\CYRS }\IeC {\cyri }\IeC {\cyrs }\IeC {\cyrt }\IeC {\cyre }\IeC {\cyrm }\IeC {\cyra } \IeC {\cyru }\IeC {\cyrr }\IeC {\cyra }\IeC {\cyrv }\IeC {\cyrn }\IeC {\cyre }\IeC {\cyrn }\IeC {\cyri }\IeC {\cyrishrt } \IeC {\cyrs } \IeC {\cyri }\IeC {\cyrn }\IeC {\cyrt }\IeC {\cyre }\IeC {\cyrg }\IeC {\cyrr }\IeC {\cyra }\IeC {\cyrl }\IeC {\cyra }\IeC {\cyrm }\IeC {\cyri }}{8}{subsection.2.1.5}
\contentsline {subsubsection}{\IeC {\CYRM }\IeC {\cyra }\IeC {\cyrt }\IeC {\cyrr }\IeC {\cyri }\IeC {\cyrch }\IeC {\cyrn }\IeC {\cyro }\IeC {\cyre } \IeC {\cyru }\IeC {\cyrr }\IeC {\cyra }\IeC {\cyrv }\IeC {\cyrn }\IeC {\cyre }\IeC {\cyrn }\IeC {\cyri }\IeC {\cyre }}{8}{subsection.2.1.5}
\contentsline {section}{\numberline {2.2}\IeC {\CYRZH }\IeC {\cyre }\IeC {\cyrl }\IeC {\cyra }\IeC {\cyrt }\IeC {\cyre }\IeC {\cyrl }\IeC {\cyrsftsn }\IeC {\cyrn }\IeC {\cyro }}{8}{section.2.2}
\contentsline {chapter}{\numberline {3}\IeC {\CYRT }\IeC {\cyre }\IeC {\cyrs }\IeC {\cyrt }\IeC {\cyri }\IeC {\cyrr }\IeC {\cyro }\IeC {\cyrv }\IeC {\cyra }\IeC {\cyrn }\IeC {\cyri }\IeC {\cyre } \IeC {\cyrz }\IeC {\cyrn }\IeC {\cyra }\IeC {\cyrn }\IeC {\cyri }\IeC {\cyrishrt } \IeC {\cyrp }\IeC {\cyro } \IeC {\cyro }\IeC {\cyrf }\IeC {\cyro }\IeC {\cyrr }\IeC {\cyrm }\IeC {\cyrl }\IeC {\cyre }\IeC {\cyrn }\IeC {\cyri }\IeC {\cyryu } \IeC {\cyri }\IeC {\cyrl }\IeC {\cyrl }\IeC {\cyryu }\IeC {\cyrs }\IeC {\cyrt }\IeC {\cyrr }\IeC {\cyra }\IeC {\cyrc }\IeC {\cyri }\IeC {\cyrishrt } \IeC {\cyri } \IeC {\cyrt }\IeC {\cyra }\IeC {\cyrb }\IeC {\cyrl }\IeC {\cyri }\IeC {\cyrc }}{10}{chapter.3}
\contentsline {section}{\numberline {3.1}\IeC {\CYRV }\IeC {\cyrs }\IeC {\cyrt }\IeC {\cyra }\IeC {\cyrv }\IeC {\cyrk }\IeC {\cyra } \IeC {\cyri }\IeC {\cyrl }\IeC {\cyrl }\IeC {\cyryu }\IeC {\cyrs }\IeC {\cyrt }\IeC {\cyrr }\IeC {\cyra }\IeC {\cyrc }\IeC {\cyri }\IeC {\cyrishrt }}{10}{section.3.1}
\contentsline {subsection}{\numberline {3.1.1}\IeC {\CYRV }\IeC {\cyrs }\IeC {\cyrt }\IeC {\cyra }\IeC {\cyrv }\IeC {\cyrk }\IeC {\cyra } 2-\IeC {\cyrh } \IeC {\cyri }\IeC {\cyrl }\IeC {\cyrl }\IeC {\cyryu }\IeC {\cyrs }\IeC {\cyrt }\IeC {\cyrr }\IeC {\cyra }\IeC {\cyrc }\IeC {\cyri }\IeC {\cyrishrt } \IeC {\cyrr }\IeC {\cyrya }\IeC {\cyrd }\IeC {\cyro }\IeC {\cyrm }, \IeC {\cyrs } \IeC {\cyro }\IeC {\cyrd }\IeC {\cyrn }\IeC {\cyro }\IeC {\cyrishrt } \IeC {\cyrp }\IeC {\cyro }\IeC {\cyrd }\IeC {\cyrp }\IeC {\cyri }\IeC {\cyrs }\IeC {\cyrsftsn }\IeC {\cyryu }}{10}{subsection.3.1.1}
\contentsline {subsection}{\numberline {3.1.2}\IeC {\CYRO }\IeC {\cyrb }\IeC {\cyrt }\IeC {\cyre }\IeC {\cyrk }\IeC {\cyra }\IeC {\cyrn }\IeC {\cyri }\IeC {\cyre } \IeC {\cyrr }\IeC {\cyri }\IeC {\cyrs }\IeC {\cyru }\IeC {\cyrn }\IeC {\cyrk }\IeC {\cyra } \IeC {\cyrt }\IeC {\cyre }\IeC {\cyrk }\IeC {\cyrs }\IeC {\cyrt }\IeC {\cyro }\IeC {\cyrm }}{11}{subsection.3.1.2}
\contentsline {section}{\numberline {3.2}\IeC {\CYRG }\IeC {\cyre }\IeC {\cyrn }\IeC {\cyre }\IeC {\cyrr }\IeC {\cyra }\IeC {\cyrc }\IeC {\cyri }\IeC {\cyrya } \IeC {\cyrr }\IeC {\cyri }\IeC {\cyrs }\IeC {\cyru }\IeC {\cyrn }\IeC {\cyrk }\IeC {\cyro }\IeC {\cyrv } \IeC {\cyri }\IeC {\cyrz } \IeC {\cyrk }\IeC {\cyro }\IeC {\cyrd }\IeC {\cyra } (tikz/pgfplots)}{12}{section.3.2}
\contentsline {subsection}{\numberline {3.2.1}\IeC {\CYRZ }\IeC {\cyra }\IeC {\cyrg }\IeC {\cyrr }\IeC {\cyru }\IeC {\cyrz }\IeC {\cyrk }\IeC {\cyra } \IeC {\cyrd }\IeC {\cyra }\IeC {\cyrn }\IeC {\cyrn }\IeC {\cyrery }\IeC {\cyrh } \IeC {\cyri }\IeC {\cyrz } csv}{12}{subsection.3.2.1}
\contentsline {subsection}{\numberline {3.2.2}\IeC {\CYRG }\IeC {\cyrr }\IeC {\cyra }\IeC {\cyrf }\IeC {\cyri }\IeC {\cyrk } \IeC {\cyrf }\IeC {\cyru }\IeC {\cyrn }\IeC {\cyrk }\IeC {\cyrc }\IeC {\cyri }\IeC {\cyri } 2D}{13}{subsection.3.2.2}
\contentsline {subsection}{\numberline {3.2.3}\IeC {\CYRG }\IeC {\cyrr }\IeC {\cyra }\IeC {\cyrf }\IeC {\cyri }\IeC {\cyrk } \IeC {\cyrf }\IeC {\cyru }\IeC {\cyrn }\IeC {\cyrk }\IeC {\cyrc }\IeC {\cyri }\IeC {\cyri } 3D}{13}{subsection.3.2.3}
\contentsline {section}{\numberline {3.3}\IeC {\CYRT }\IeC {\cyra }\IeC {\cyrb }\IeC {\cyrl }\IeC {\cyri }\IeC {\cyrc }\IeC {\cyrery }}{14}{section.3.3}
\contentsline {subsection}{\numberline {3.3.1}\IeC {\CYRZ }\IeC {\cyra }\IeC {\cyrg }\IeC {\cyrr }\IeC {\cyru }\IeC {\cyrz }\IeC {\cyrk }\IeC {\cyra } \IeC {\cyri }\IeC {\cyrz } csv}{14}{subsection.3.3.1}
\contentsline {subsection}{\numberline {3.3.2}\IeC {\CYRM }\IeC {\cyrn }\IeC {\cyro }\IeC {\cyrg }\IeC {\cyro }\IeC {\cyrs }\IeC {\cyrt }\IeC {\cyrr }\IeC {\cyra }\IeC {\cyrn }\IeC {\cyri }\IeC {\cyrch }\IeC {\cyrn }\IeC {\cyra }\IeC {\cyrya } \IeC {\cyrt }\IeC {\cyra }\IeC {\cyrb }\IeC {\cyrl }\IeC {\cyri }\IeC {\cyrc }\IeC {\cyra }}{15}{subsection.3.3.2}
\contentsline {chapter}{\numberline {4}\IeC {\CYRT }\IeC {\cyre }\IeC {\cyrs }\IeC {\cyrt }\IeC {\cyri }\IeC {\cyrr }\IeC {\cyro }\IeC {\cyrv }\IeC {\cyra }\IeC {\cyrn }\IeC {\cyri }\IeC {\cyre } \IeC {\cyrz }\IeC {\cyrn }\IeC {\cyra }\IeC {\cyrn }\IeC {\cyri }\IeC {\cyrishrt } \IeC {\cyrp }\IeC {\cyro } \IeC {\cyro }\IeC {\cyrf }\IeC {\cyro }\IeC {\cyrr }\IeC {\cyrm }\IeC {\cyrl }\IeC {\cyre }\IeC {\cyrn }\IeC {\cyri }\IeC {\cyryu } \IeC {\cyrp }\IeC {\cyrr }\IeC {\cyro }\IeC {\cyrg }\IeC {\cyrr }\IeC {\cyra }\IeC {\cyrm }\IeC {\cyrm }\IeC {\cyrn }\IeC {\cyro }\IeC {\cyrishrt } \IeC {\cyrd }\IeC {\cyro }\IeC {\cyrk }\IeC {\cyru }\IeC {\cyrm }\IeC {\cyre }\IeC {\cyrn }\IeC {\cyrt }\IeC {\cyra }\IeC {\cyrc }\IeC {\cyri }\IeC {\cyri }}{16}{chapter.4}
\contentsline {section}{\numberline {4.1}\IeC {\CYRO }\IeC {\cyrf }\IeC {\cyro }\IeC {\cyrr }\IeC {\cyrm }\IeC {\cyrl }\IeC {\cyre }\IeC {\cyrn }\IeC {\cyri }\IeC {\cyre } \IeC {\cyrl }\IeC {\cyri }\IeC {\cyrs }\IeC {\cyrt }\IeC {\cyri }\IeC {\cyrn }\IeC {\cyrg }\IeC {\cyro }\IeC {\cyrv } \IeC {\cyrk }\IeC {\cyro }\IeC {\cyrd }\IeC {\cyra }}{16}{section.4.1}
\contentsline {subsection}{\numberline {4.1.1}\IeC {\CYRP }\IeC {\cyrr }\IeC {\cyri }\IeC {\cyrm }\IeC {\cyre }\IeC {\cyrr } \IeC {\cyrk }\IeC {\cyro }\IeC {\cyrd }\IeC {\cyra } \IeC {\cyrs } \IeC {\cyrp }\IeC {\cyro }\IeC {\cyrm }\IeC {\cyro }\IeC {\cyrshch }\IeC {\cyrsftsn }\IeC {\cyryu } \emph {lstlisting}}{17}{subsection.4.1.1}
\contentsline {subsection}{\numberline {4.1.2}\IeC {\CYRV }\IeC {\cyrs }\IeC {\cyrt }\IeC {\cyra }\IeC {\cyrv }\IeC {\cyrk }\IeC {\cyra } \IeC {\cyrk }\IeC {\cyro }\IeC {\cyrd }\IeC {\cyra } \IeC {\cyri }\IeC {\cyrz } \IeC {\cyrf }\IeC {\cyra }\IeC {\cyrishrt }\IeC {\cyrl }\IeC {\cyra } \IeC {\cyrs } \IeC {\cyrp }\IeC {\cyro }\IeC {\cyrm }\IeC {\cyro }\IeC {\cyrshch }\IeC {\cyrsftsn }\IeC {\cyryu } \emph {lstinputlisting}}{18}{subsection.4.1.2}
\contentsline {section}{\numberline {4.2}\IeC {\CYRA }\IeC {\cyrl }\IeC {\cyrg }\IeC {\cyro }\IeC {\cyrr }\IeC {\cyri }\IeC {\cyrt }\IeC {\cyrm }\IeC {\cyrery } \IeC {\cyri } \IeC {\cyrp }\IeC {\cyrs }\IeC {\cyre }\IeC {\cyrv }\IeC {\cyrd }\IeC {\cyro }\IeC {\cyrk }\IeC {\cyro }\IeC {\cyrd }}{19}{section.4.2}
\contentsline {subsection}{\numberline {4.2.1}\IeC {\CYRA }\IeC {\cyrl }\IeC {\cyrg }\IeC {\cyro }\IeC {\cyrr }\IeC {\cyri }\IeC {\cyrt }\IeC {\cyrm }}{19}{subsection.4.2.1}
\contentsline {chapter}{\numberline {5}\IeC {\CYRC }\IeC {\cyri }\IeC {\cyrt }\IeC {\cyri }\IeC {\cyrr }\IeC {\cyro }\IeC {\cyrv }\IeC {\cyra }\IeC {\cyrn }\IeC {\cyri }\IeC {\cyre } \IeC {\cyri } \IeC {\cyrb }\IeC {\cyri }\IeC {\cyrb }\IeC {\cyrl }\IeC {\cyri }\IeC {\cyro }\IeC {\cyrg }\IeC {\cyrr }\IeC {\cyra }\IeC {\cyrf }\IeC {\cyri }\IeC {\cyrya }}{20}{chapter.5}
\contentsline {chapter}{{\cyrillictext \CYRL \cyri \cyrt \cyre \cyrr \cyra \cyrt \cyru \cyrr \cyra }}{20}{chapter.5}
\contentsline {chapter}{\IeC {\CYRS }\IeC {\cyrp }\IeC {\cyri }\IeC {\cyrs }\IeC {\cyro }\IeC {\cyrk } \IeC {\cyrr }\IeC {\cyri }\IeC {\cyrs }\IeC {\cyru }\IeC {\cyrn }\IeC {\cyrk }\IeC {\cyro }\IeC {\cyrv }}{22}{section*.2}
\contentsline {chapter}{\IeC {\CYRS }\IeC {\cyrp }\IeC {\cyri }\IeC {\cyrs }\IeC {\cyro }\IeC {\cyrk } \IeC {\cyrt }\IeC {\cyra }\IeC {\cyrb }\IeC {\cyrl }\IeC {\cyri }\IeC {\cyrc }}{23}{section*.3}
\contentsline {chapter}{\IeC {\CYRS }\IeC {\cyrp }\IeC {\cyri }\IeC {\cyrs }\IeC {\cyro }\IeC {\cyrk } \IeC {\cyrl }\IeC {\cyri }\IeC {\cyrs }\IeC {\cyrt }\IeC {\cyri }\IeC {\cyrn }\IeC {\cyrg }\IeC {\cyro }\IeC {\cyrv } \IeC {\cyrp }\IeC {\cyrr }\IeC {\cyro }\IeC {\cyrg }\IeC {\cyrr }\IeC {\cyra }\IeC {\cyrm }\IeC {\cyrm }}{24}{section*.3}
\contentsline {chapter}{\IeC {\CYRS }\IeC {\cyrp }\IeC {\cyri }\IeC {\cyrs }\IeC {\cyro }\IeC {\cyrk } \IeC {\cyra }\IeC {\cyrl }\IeC {\cyrg }\IeC {\cyro }\IeC {\cyrr }\IeC {\cyri }\IeC {\cyrt }\IeC {\cyrm }\IeC {\cyro }\IeC {\cyrv }}{25}{section*.3}
\contentsline {chapter}{\numberline {A}\IeC {\CYRI }\IeC {\cyrl }\IeC {\cyrl }\IeC {\cyryu }\IeC {\cyrs }\IeC {\cyrt }\IeC {\cyrr }\IeC {\cyra }\IeC {\cyrc }\IeC {\cyri }\IeC {\cyri } \IeC {\cyri } \IeC {\cyrt }\IeC {\cyra }\IeC {\cyrb }\IeC {\cyrl }\IeC {\cyri }\IeC {\cyrc }\IeC {\cyrery }}{26}{appendix.A}
\contentsline {section}{\numberline {A.1}\IeC {\CYRG }\IeC {\cyrr }\IeC {\cyra }\IeC {\cyrf }\IeC {\cyri }\IeC {\cyrk } \IeC {\cyrf }\IeC {\cyru }\IeC {\cyrn }\IeC {\cyrk }\IeC {\cyrc }\IeC {\cyri }\IeC {\cyri } 3D}{26}{section.A.1}
\contentsline {section}{\numberline {A.2}\IeC {\CYRM }\IeC {\cyrn }\IeC {\cyro }\IeC {\cyrg }\IeC {\cyro }\IeC {\cyrs }\IeC {\cyrt }\IeC {\cyrr }\IeC {\cyra }\IeC {\cyrn }\IeC {\cyri }\IeC {\cyrch }\IeC {\cyrn }\IeC {\cyra }\IeC {\cyrya } \IeC {\cyrt }\IeC {\cyra }\IeC {\cyrb }\IeC {\cyrl }\IeC {\cyri }\IeC {\cyrc }\IeC {\cyra }}{27}{section.A.2}
\contentsline {chapter}{\numberline {B}\IeC {\CYRL }\IeC {\cyri }\IeC {\cyrs }\IeC {\cyrt }\IeC {\cyri }\IeC {\cyrn }\IeC {\cyrg } \IeC {\cyrp }\IeC {\cyrr }\IeC {\cyro }\IeC {\cyrg }\IeC {\cyrr }\IeC {\cyra }\IeC {\cyrm }\IeC {\cyrm }\IeC {\cyrn }\IeC {\cyro }\IeC {\cyrg }\IeC {\cyro } \IeC {\cyrk }\IeC {\cyro }\IeC {\cyrd }\IeC {\cyra }}{30}{appendix.B}
